%YAML 1.1
%TAG !u! tag:unity3d.com,2011:
--- !u!114 &11400000
MonoBehaviour:
  m_ObjectHideFlags: 0
  m_CorrespondingSourceObject: {fileID: 0}
  m_PrefabInstance: {fileID: 0}
  m_PrefabAsset: {fileID: 0}
  m_GameObject: {fileID: 0}
  m_Enabled: 1
  m_EditorHideFlags: 0
  m_Script: {fileID: 11500000, guid: 8c6eec0f8bd24314faa03025887c6f9e, type: 3}
  m_Name: DoorRotation
  m_EditorClassIdentifier: 
  leftRotation: {x: 0, y: 90, z: 0}
  rightRotation: {x: 0, y: -90, z: 0}
  topRotation: {x: 0, y: 180, z: 0}
  bottomRotation: {x: 0, y: 0, z: 0}
