%YAML 1.1
%TAG !u! tag:unity3d.com,2011:
--- !u!114 &11400000
MonoBehaviour:
  m_ObjectHideFlags: 0
  m_CorrespondingSourceObject: {fileID: 0}
  m_PrefabInstance: {fileID: 0}
  m_PrefabAsset: {fileID: 0}
  m_GameObject: {fileID: 0}
  m_Enabled: 1
  m_EditorHideFlags: 0
  m_Script: {fileID: 11500000, guid: 43f2bb328b4d93448b26501ee52a5f7d, type: 3}
  m_Name: DoorBottom
  m_EditorClassIdentifier: 
  xMin: 0.671
  xMax: 0
  y: 0
  zMin: -8.432
  zMax: -14.939
